<svg width="20" height="20" viewBox="0 0 20 20" fill="none" xmlns="http://www.w3.org/2000/svg">
<g clip-path="url(#clip0)">
<path d="M8.0104 16.0999C9.67661 14.8637 10.8428 13.0696 11.2966 11.0448C11.4556 10.363 11.539 9.66545 11.5449 8.96545V6.55166H13.6138C13.7418 6.55269 13.8594 6.48166 13.9183 6.36821C13.9773 6.25476 13.9676 6.11787 13.8932 6.01373L9.76557 0.141315C9.70075 0.0520048 9.59661 -0.00109863 9.48626 -0.00109863C9.37592 -0.00109863 9.27178 0.05166 9.20695 0.141315L5.05868 6.01373C4.98419 6.11787 4.97454 6.25476 5.0335 6.36821C5.09247 6.48166 5.21005 6.55269 5.33799 6.55166H7.40695V9.05856C7.39074 10.5544 6.67006 11.9551 5.46212 12.8379C4.79557 13.3434 3.56833 14.4175 2.73143 16.2106C2.07764 17.6113 1.9273 18.8834 1.89661 19.6655C1.90316 19.8527 2.05764 20.001 2.24488 19.9999H5.69661C5.87143 19.9986 6.03799 19.6827 6.03799 19.6827C6.08799 19.3382 6.17626 18.9444 6.3304 18.5244C6.77074 17.3241 7.51937 16.533 8.0104 16.0999Z" fill="#004689"/>
<path d="M11.969 11.2034C11.6245 12.7006 10.9242 14.0927 9.92761 15.262C11.6807 14.9192 13.4797 15.5734 14.6035 16.962C14.6628 17.032 14.7479 17.0751 14.8393 17.0816C14.9307 17.0882 15.021 17.0575 15.0897 16.9965L17.6966 14.7378C17.839 14.6161 17.8576 14.4027 17.7379 14.2585C16.289 12.5192 14.2352 11.3934 11.9897 11.1068C11.9828 11.1378 11.9759 11.1723 11.969 11.2034Z" fill="#004689"/>
</g>
<defs>
<clipPath id="clip0">
<rect width="20" height="20" fill="white"/>
</clipPath>
</defs>
</svg>
