[
  {
    "Banyumanik": {
      "Ungaran": {
        "1": 7500,
        "2": 11000,
        "3": 11000,
        "4": 15000,
        "5": 15000
      },
      "Bawen": {
        "1": 15500,
        "2": 23000,
        "3": 23000,
        "4": 31000,
        "5": 31000
      },
      "Salatiga": {
        "1": 33000,
        "2": 49500,
        "3": 49500,
        "4": 66000,
        "5": 66000
      },
      "Boyolali": {
        "1": 56500,
        "2": 85000,
        "3": 85000,
        "4": 113500,
        "5": 113500
      },
      "Kartosura": {
        "1": 65000,
        "2": 97500,
        "3": 97500,
        "4": 130500,
        "5": 130500
      }
    },
    "Ungaran": {
      "Bawen": {
        "1": 8000,
        "2": 12000,
        "3": 12000,
        "4": 16000,
        "5": 16000
      },
      "Salatiga": {
        "1": 25500,
        "2": 38500,
        "3": 38500,
        "4": 51500,
        "5": 51500
      },
      "Boyolali": {
        "1": 49500,
        "2": 74000,
        "3": 74000,
        "4": 98500,
        "5": 98500
      },
      "Kartosura": {
        "1": 57500,
        "2": 86500,
        "3": 86500,
        "4": 115500,
        "5": 115500
      },
      "Banyumanik": {
        "1": 7500,
        "2": 11000,
        "3": 11000,
        "4": 15000,
        "5": 15000
      }
    },
    "Bawen": {
      "Salatiga": {
        "1": 17500,
        "2": 26500,
        "3": 26500,
        "4": 35000,
        "5": 35000
      },
      "Boyolali": {
        "1": 41500,
        "2": 62000,
        "3": 62000,
        "4": 82500,
        "5": 82500
      },
      "Kartosura": {
        "1": 49500,
        "2": 74500,
        "3": 74500,
        "4": 99500,
        "5": 99500
      },
      "Banyumanik": {
        "1": 15500,
        "2": 23000,
        "3": 23000,
        "4": 31000,
        "5": 31000
      },
      "Ungaran": {
        "1": 8000,
        "2": 12000,
        "3": 12000,
        "4": 16000,
        "5": 16000
      }
    },
    "Salatiga": {
      "Boyolali": {
        "1": 23500,
        "2": 35500,
        "3": 35500,
        "4": 47500,
        "5": 47500
      },
      "Kartosura": {
        "1": 32000,
        "2": 48000,
        "3": 48000,
        "4": 64000,
        "5": 64000
      },
      "Banyumanik": {
        "1": 33000,
        "2": 49500,
        "3": 49500,
        "4": 66000,
        "5": 66000
      },
      "Ungaran": {
        "1": 25500,
        "2": 38500,
        "3": 38500,
        "4": 51500,
        "5": 51500
      },
      "Bawen": {
        "1": 17500,
        "2": 26500,
        "3": 26500,
        "4": 35000,
        "5": 35000
      }
    },
    "Boyolali": {
      "Kartosura": {
        "1": 8500,
        "2": 12500,
        "3": 12500,
        "4": 17000,
        "5": 17000
      },
      "Banyumanik": {
        "1": 56500,
        "2": 85000,
        "3": 85000,
        "4": 113500,
        "5": 113500
      },
      "Ungaran": {
        "1": 49500,
        "2": 74000,
        "3": 74000,
        "4": 98500,
        "5": 98500
      },
      "Bawen": {
        "1": 41500,
        "2": 62000,
        "3": 62000,
        "4": 82500,
        "5": 82500
      },
      "Salatiga": {
        "1": 23500,
        "2": 35500,
        "3": 35500,
        "4": 47500,
        "5": 47500
      }
    },
    "Kartosura": {
      "Banyumanik": {
        "1": 65000,
        "2": 97500,
        "3": 97500,
        "4": 130500,
        "5": 130500
      },
      "Ungaran": {
        "1": 57500,
        "2": 86500,
        "3": 86500,
        "4": 115500,
        "5": 115500
      },
      "Bawen": {
        "1": 49500,
        "2": 74500,
        "3": 74500,
        "4": 99500,
        "5": 99500
      },
      "Salatiga": {
        "1": 32000,
        "2": 48000,
        "3": 48000,
        "4": 64000,
        "5": 64000
      },
      "Boyolali": {
        "1": 8500,
        "2": 12500,
        "3": 12500,
        "4": 17000,
        "5": 17000
      }
    }
  }
]